spark3
…
id <- 1:4
animal <- c("crocodile", "shark", "goldfish", "monkey", "mole")
colour <- c("indigo", "red", "black", "lime")
num_rows <- 1000

data_frame1 <- tibble(
  id = sample(id, size = num_rows, replace = TRUE),
  animal = sample(animal, size = num_rows, replace = TRUE))

data_frame2 <- tibble(id, colour)

data_frame3 <- dplyr::left_join(data_frame1, data_frame2, by = "id")
print(data_frame3)

# A tibble: 1,000 × 3
      id animal    colour
   <int> <chr>     <chr> 
 1     3 goldfish  black 
 2     1 monkey    indigo
 3     3 shark     black 
 4     2 monkey    red   
 5     2 monkey    red   
 6     2 mole      red   
 7     4 crocodile lime  
 8     3 goldfish  black 
 9     2 goldfish  red   
10     4 shark     lime  
# … with 990 more rows
…
sdf1 <- copy_to(sc, data_frame1)
sdf2 <- copy_to(sc, data_frame2)

# Do the join

sdf3 <- sparklyr::left_join(sdf1, sdf2, by = "id")

# Lets collect to have a look

df3 <- collect(sdf3)
print(df3)

# A tibble: 1,000 × 3
      id animal    colour
   <int> <chr>     <chr> 
 1     1 monkey    indigo
 2     1 mole      indigo
 3     1 crocodile indigo
 4     1 shark     indigo
 5     1 goldfish  indigo
 6     1 shark     indigo
 7     1 crocodile indigo
 8     1 crocodile indigo
 9     1 monkey    indigo
10     1 goldfish  indigo
# … with 990 more rows

sdf3_broadcast <- sparklyr::left_join(sdf1, 
                                      sdf_broadcast(sdf2),
                                      by = "id")

df3_broadcast <- collect(sdf3_broadcast)
print(df3_broadcast)

# A tibble: 1,000 × 3
      id animal    colour
   <int> <chr>     <chr> 
 1     1 monkey    indigo
 2     1 mole      indigo
 3     1 crocodile indigo
 4     1 shark     indigo
 5     1 goldfish  indigo
 6     1 shark     indigo
 7     1 crocodile indigo
 8     1 crocodile indigo
 9     1 monkey    indigo
10     1 goldfish  indigo
# … with 990 more rows
…
df2 <- tibble(id = c(1, 2), working_pattern)

sdf1 <- copy_to(sc, df1, overwrite = TRUE)
sdf2 <- copy_to(sc, df2, overwrite = TRUE)

# Original method

sdf3_default <- sparklyr::left_join(sdf1, sdf2, by = "id")

df3_default <- collect(sdf3_default)

print(df3_default)

# A tibble: 100,000 × 3
      id profession working_pattern
   <int> <chr>      <chr>          
 1     1 dentist    full time      
 2     1 dentist    full time      
 3     1 optician   full time      
 4     1 optician   full time      
 5     1 dentist    full time      
 6     1 optician   full time      
 7     1 doctor     full time      
 8     1 dentist    full time      
 9     1 dentist    full time      
10     1 nurse      full time      
# … with 99,990 more rows
…
df2 <- tibble(id_salted = paste(1, 1:8, sep = "-")) |> 
  mutate(working_pattern = "full time") |> 
  add_row(id_salted = "2", working_pattern = "part time")

sdf2 <- copy_to(sc, df2, overwrite = TRUE)

sdf3_salted <- sparklyr::left_join(sdf1, sdf2, by = "id_salted")

df3_salted <- collect(sdf3_salted)

print(df3_salted)

# A tibble: 100,000 × 5
      id profession  salt id_salted working_pattern
   <int> <chr>      <int> <chr>     <chr>          
 1     1 optician       7 1-7       full time      
 2     1 nurse          7 1-7       full time      
 3     1 optician       7 1-7       full time      
 4     1 dentist        7 1-7       full time      
 5     1 doctor         7 1-7       full time      
 6     1 doctor         7 1-7       full time      
 7     1 doctor         7 1-7       full time      
 8     1 doctor         7 1-7       full time      
 9     1 dentist        7 1-7       full time      
10     1 optician       7 1-7       full time      
# … with 99,990 more rows
