…
file_train <- glue::glue(
  "{here::here()}/notebooks/decision-trees_20220608/train.csv",
)

# We want to predict the transported variable using the others. 

train <- file_train |> 
  readr::read_csv(progress = FALSE, show_col_types = FALSE) |> 
  janitor::clean_names() |> 
  dplyr::relocate(transported)

print(train)
```

    ## # A tibble: 8,693 × 14
    ##    transported passenger_id home_planet cryo_sleep cabin destination   age vip  
    ##    <lgl>       <chr>        <chr>       <lgl>      <chr> <chr>       <dbl> <lgl>
    ##  1 FALSE       0001_01      Europa      FALSE      B/0/P TRAPPIST-1e    39 FALSE
    ##  2 TRUE        0002_01      Earth       FALSE      F/0/S TRAPPIST-1e    24 FALSE
    ##  3 FALSE       0003_01      Europa      FALSE      A/0/S TRAPPIST-1e    58 TRUE 
    ##  4 FALSE       0003_02      Europa      FALSE      A/0/S TRAPPIST-1e    33 FALSE
    ##  5 TRUE        0004_01      Earth       FALSE      F/1/S TRAPPIST-1e    16 FALSE
    ##  6 TRUE        0005_01      Earth       FALSE      F/0/P PSO J318.5…    44 FALSE
    ##  7 TRUE        0006_01      Earth       FALSE      F/2/S TRAPPIST-1e    26 FALSE
    ##  8 TRUE        0006_02      Earth       TRUE       G/0/S TRAPPIST-1e    28 FALSE
    ##  9 TRUE        0007_01      Earth       FALSE      F/3/S TRAPPIST-1e    35 FALSE
    ## 10 TRUE        0008_01      Europa      TRUE       B/1/P 55 Cancri e    14 FALSE
    ## # … with 8,683 more rows, and 6 more variables: room_service <dbl>,
    ## #   food_court <dbl>, shopping_mall <dbl>, spa <dbl>, vr_deck <dbl>, name <chr>
…
# In reality we might expand this out to try more combinations

model_paras <- dials::grid_regular(dials::cost_complexity(), 
                                   dials::tree_depth(), 
                                   dials::min_n(), 
                                   levels = 4)

print(model_paras)
```

    ## # A tibble: 64 × 3
    ##    cost_complexity tree_depth min_n
    ##              <dbl>      <int> <int>
    ##  1    0.0000000001          1     2
    ##  2    0.0000001             1     2
    ##  3    0.0001                1     2
    ##  4    0.1                   1     2
    ##  5    0.0000000001          5     2
    ##  6    0.0000001             5     2
    ##  7    0.0001                5     2
    ##  8    0.1                   5     2
    ##  9    0.0000000001         10     2
    ## 10    0.0000001            10     2
    ## # … with 54 more rows
…
