…
``` r
# Create dummy data
set.seed(1001) # so random numbers can be replicated
dummy <- tibble(time_period = 1:100,
                value1 = runif(100, 0, 1), 
                value2 = runif(100, 0, 1),
                group1 = sample(c("a", "b", "c"), size = 100, replace = TRUE))

print(dummy)
```

    # A tibble: 100 × 4
       time_period  value1 value2 group1
             <int>   <dbl>  <dbl> <chr> 
     1           1 0.986   0.156  b     
     2           2 0.413   0.386  b     
     3           3 0.430   0.0356 b     
     4           4 0.419   0.686  c     
     5           5 0.427   0.0526 c     
     6           6 0.888   0.535  c     
     7           7 0.00610 0.819  a     
     8           8 0.0812  0.0439 c     
     9           9 0.289   0.603  c     
    10          10 0.765   0.818  b     
    # … with 90 more rows
…
``` r
print(celsius_long)
```

    # A tibble: 24 × 4
       date       month_name measurement temperature
       <date>     <ord>      <chr>             <dbl>
     1 2020-01-01 Jan        high                  8
     2 2020-01-01 Jan        low                   3
     3 2020-02-01 Feb        high                  9
     4 2020-02-01 Feb        low                   3
     5 2020-03-01 Mar        high                 12
     6 2020-03-01 Mar        low                   4
     7 2020-04-01 Apr        high                 16
     8 2020-04-01 Apr        low                   6
     9 2020-05-01 May        high                 18
    10 2020-05-01 May        low                   9
    # … with 14 more rows
…
