…
taxi_standard <- file_taxi |> 
  read_csv(show_col_types = FALSE) |> 
  select(trip_distance, passenger_count, total_amount, pickup_location_id) |> 
  filter(trip_distance >= 5, passenger_count > 1) |> 
  mutate(total_amount = as.numeric(total_amount),
         total_amount_per_head = total_amount / passenger_count) |> 
  group_by(pickup_location_id) |> 
  summarise(mean_amount = mean(total_amount_per_head, na.rm = TRUE))

print(taxi_standard)
```

    # A tibble: 249 × 2
       pickup_location_id mean_amount
                    <dbl>       <dbl>
     1                  1        54.0
     2                  3        11.8
     3                  4        11.9
     4                  5        14.6
     5                  6        12.7
     6                  7        11.6
     7                  8        18.2
     8                  9        13.2
     9                 10        19.7
    10                 11        10.7
    # … with 239 more rows
    # ℹ Use `print(n = ...)` to see more rows
…
print(taxi_arrow)
```

    # A tibble: 261 × 2
       pickup_location_id mean_amount
                    <int>       <dbl>
     1                164        17.4
     2                143        16.4
     3                138        17.4
     4                141        14.0
     5                125        16.1
     6                 90        15.5
     7                 74        13.8
     8                100        16.9
     9                239        15.4
    10                246        16.1
    # … with 251 more rows
    # ℹ Use `print(n = ...)` to see more rows
…
