…
</div>

footballdata3 isn’t quite the same as a normal tibble/data.frame. That’s
because R hasn’t pulled the data in yet. This keeps things fast. To pull
it in we use the collect function.

``` r
football_data3 <- dplyr::collect(football_data3)
print(football_data3)
```

    ## # A tibble: 384 × 5
    ##    Date       HomeTeam   AwayTeam        FTHG  FTAG
    ##    <chr>      <chr>      <chr>          <dbl> <dbl>
    ##  1 14/08/2021 Man United Leeds              5     1
    ##  2 14/08/2021 Burnley    Brighton           1     2
    ##  3 14/08/2021 Chelsea    Crystal Palace     3     0
    ##  4 14/08/2021 Everton    Southampton        3     1
    ##  5 14/08/2021 Watford    Aston Villa        3     2
    ##  6 14/08/2021 Norwich    Liverpool          0     3
    ##  7 15/08/2021 Newcastle  West Ham           2     4
    ##  8 21/08/2021 Leeds      Everton            2     2
    ##  9 21/08/2021 Man City   Norwich            5     0
    ## 10 23/08/2021 West Ham   Leicester          4     1
    ## # … with 374 more rows
…
